code,item,description,qty,price,tax
001,Lapiz,Utencilio para estudiar,2,10,10
002,Celular,Dispositivo de comunicacion,20,100,2
003,Franela,Atuendo para personas,2,100,1
004,Pendrive,Dispositivo de almacenamiento,200,001,1
005,Pc,Ordenador electronico,12,007,5
006,Televisor,Tv de 15 pulgadas,1,1000,5