code,item,url_image,description,qty,price,tax
1,Lapiz,https://media.aws.alkosto.com/media/catalog/product/cache/1/image/9df78eab33525d08d6e5fb8d27136e95/s/a/sam-1.jpg ,Utencilio para estudiar,2,70,2
2,Celular,https://media.aws.alkosto.com/media/catalog/product/cache/1/image/9df78eab33525d08d6e5fb8d27136e95/s/a/sam-1.jpg,Dispositivo de comunicacion,20,80,2
3,Franela,https://media.aws.alkosto.com/media/catalog/product/cache/1/image/9df78eab33525d08d6e5fb8d27136e95/s/a/sam-1.jpg,Atuendo para personas,2,100,1
4,Pendrive,https://media.aws.alkosto.com/media/catalog/product/cache/1/image/9df78eab33525d08d6e5fb8d27136e95/s/a/sam-1.jpg,Dispositivo de almacenamiento,200,1,1
5,Pc,https://media.aws.alkosto.com/media/catalog/product/cache/1/image/9df78eab33525d08d6e5fb8d27136e95/s/a/sam-1.jpg,Ordenador electronico,12,7,5
6,Televisor,https://media.aws.alkosto.com/media/catalog/product/cache/1/image/9df78eab33525d08d6e5fb8d27136e95/s/a/sam-1.jpg,Tv de 15 pulgadas,1,1000,5
