code,item,url_image,description,qty,price,tax
1,Lapiz,http://graffica.info/wp-content/uploads/2014/10/intuos-creative-stylus-2_vertical-620x413.jpg,Utencilio para estudiar,2,15,12
2,Celular ramon,https://media.aws.alkosto.com/media/catalog/product/cache/1/image/9df78eab33525d08d6e5fb8d27136e95/s/a/sam-1.jpg,Dispositivo de comunicacion,4,200,12
3,Franela,https://s-media-cache-ak0.pinimg.com/564x/18/18/b1/1818b1e404e44f4e9366e8af5fec7891.jpg,Atuendo para personas,6,300,12
4,Pendrive,https://http2.mlstatic.com/D_Q_NP_651264-MLV25574874748_052017-Q.jpg,Dispositivo de almacenamiento,8,400,12
5,Pc,https://k40.kn3.net/taringa/0/7/5/5/8/6/luis221/E18.jpg,Ordenador electronico,10,10,0
6,Televisor,https://www.tuexperto.com/wp-content/uploads/2012/09/televisor_1.jpg,Tv de 15 pulgadas,12,20,0
