code,item,url_image,description,qty,price,tax,precio_compra,ganancia,precio_colombia,proveedor
1,Kit de Herramientas Jakemy,https://image.ibb.co/nh0k6a/WIN_20170816_09_29_42_Pro.jpg,74  En 1 Con Morral Tela,15,40,0,15,25,120000,Brasilera
2,Pegamento Zhandila Negro T-7000,https://preview.ibb.co/m2NS7Q/Picture_8.jpg,Viscosidad Media 50Ml 1.68 Fl Oz,4,5,0,2,3,15000,Brasilera
3,Soldadura Estado Baku 3mm,https://image.ibb.co/eR9JE5/Picture_5.jpg,Plomo 97% 0.3% Plata 0.7% Cobre ,2,3,0,1.5,1.5,9000,Brasilera
4,Medidor Multimetro USB Amoled ,https://image.ibb.co/mTLuMk/Picture_20.jpg,"Voltaje , Amperios , Potencia, 10 memorias",4,12,0,4,8,36000,Jimmy China
5,Tester Potencia 35W Cargadores,https://image.ibb.co/ctPX7Q/Picture_15.jpg,Carga Resistiva Variable Con Amoled,1,80,0,50,30,240000,Import Miami
6,Fuente de voltaje 1502DD,https://image.ibb.co/mZ16Z5/Picture_10.jpg,Voltaje Variable 0 a 15v Corriente 0 a 2 A,36,35,0,19,16,105000,Oswaldo Quesada
7,Reactivador De Baterias Iphone,https://image.ibb.co/eVwFu5/Picture_21.jpg,Incluye Xiami Iphone y samsung,1,25,0,15,10,75000,Miguel Mera
8,Carga Rapida Auto Original Samsung,https://image.ibb.co/cSTg1k/Picture_24.jpg,Adaptator Auto Sin Cable Blanco o Negro,13,8,0,3,5,24000,Chino Cables GYE
9,Stencil Samsung  S7,https://image.ibb.co/mCN5Bk/2.jpg,Reballing,8,5,0,2,3,15000,Chrerry
10,Stencil Iphone  5 ,https://image.ibb.co/i8iOxQ/1.jpg,Reballing,7,5,0,2,3,15000,Chrerry
11,Stencil Samsung Note3,https://image.ibb.co/gwnBj5/3.jpg,Reballing,7,5,0,2,3,15000,Chrerry
12,Stencil Samsung Smartphone MTK ,https://image.ibb.co/kKN0cQ/4.jpg,Reballing ,7,5,0,2,3,15000,-
13,Stencil Samsung S6,https://image.ibb.co/huGRHQ/5.jpg,Reballing,7,5,0,2,3,15000,-
14,Stencil Samsung Note4,https://image.ibb.co/eJZJWk/6.jpg,Reballing ,2,5,0,2,3,15000,-
15,Stencil Iphone 6s ,https://image.ibb.co/chKJWk/7.jpg,Reballing,7,5,0,2,3,15000,-
16,Stencil Iphone 6  ,https://image.ibb.co/gn4VcQ/8.jpg,Reballing ,7,5,1,0,5,15000,-
17,Stencil Samsung 5s ,https://image.ibb.co/govQBk/9.jpg,Reballing,7,5,2,0,5,15000,-
18,Stencil Iphone 6 Plus ,https://image.ibb.co/bwiTWk/10.jpg,Reballing,1,5,3,0,5,15000,-
19,Stencil Samsung S6,https://image.ibb.co/hdh0cQ/11.jpg,Reballing ,7,5,4,0,5,15000,-
