code,item,description,qty,price,tax
001,Lapiz,Utencilio para estudiar,2,1,10
002,Celular,Dispositivo de comunicacion,2,1,2
003,Franela,Atuendo para personas,2,1,1
004,Pendrive,Dispositivo de almacenamiento,2,1,1
005,Pc,Ordenador electronico,12,1,5
006,Televisor,Tv de 15 pulgadas,1,1,5